0.5819
0.4948
0.4251
0.3641
0.3223
0.2979
0.2631
0.2387
0.2282
0.2038
0.1969
0.1794
0.1638
0.1568
0.1429
0.1359
0.1237
0.1115
0.0906
0.0836
0.0767
0.0749
0.0679
0.0662
0.0610
0.0575
0.0488
0.0470
0.0436
0.0383
0.0366
0.0331
0.0296
0.0279
0.0244
0.0226
0.0192
0.0192
0.0174
0.0174
0.0157
0.0157
0.0139
0.0105
0.0070
0.0052
0.0052
0.0052
0.0052
0.0052
0.0052
0.0052
0.0052
0.0052
0.0052
0.0052
0.0052
0.0052
0.0052
0.0035
0.0035
0.0035
0.0035
0.0035
0.0035
0.0035
0.0017
0.0017
0.0017
0.0017
0.0017
0.0017
0.0000